{
  "version": 2,
  "cli": {
    "defaultCollection": "@nrwl/angular"
  },
  "defaultProject": "frontend",
  "generators": {
    "@nrwl/angular:application": {
      "style": "scss",
      "linter": "eslint",
      "unitTestRunner": "jest",
      "e2eTestRunner": "cypress"
    },
    "@nrwl/angular:library": {
      "style": "scss",
      "linter": "eslint",
      "unitTestRunner": "jest"
    },
    "@nrwl/angular:component": {
      "style": "scss"
    }
  },
  "projects": {
    "frontend": {
      "projectType": "application",
      "generators": {
        "@schematics/angular:component": {
          "style": "scss",
          "changeDetection": "OnPush",
          "skipTests": true,
          "viewEncapsulation": "Emulated",
          "inlineTemplate": false,
          "inlineStyle": false,
          "displayBlock": true
        },
        "@schematics/angular:directive": {
          "skipTests": true
        },
        "@schematics/angular:service": {
          "skipTests": true
        },
        "@schematics/angular:pipe": {
          "skipTests": true
        },
        "@schematics/angular:class": {
          "skipTests": true
        }
      },
      "root": "apps/frontend",
      "sourceRoot": "apps/frontend/src",
      "prefix": "node",
      "targets": {
        "build": {
          "executor": "@angular-devkit/build-angular:browser",
          "options": {
            "outputPath": "dist/apps/frontend/browser",
            "index": "apps/frontend/src/index.html",
            "main": "apps/frontend/src/main.ts",
            "polyfills": "apps/frontend/src/polyfills.ts",
            "tsConfig": "apps/frontend/tsconfig.app.json",
            "aot": true,
            "assets": [
              "apps/frontend/src/favicon.ico",
              "apps/frontend/src/assets"
            ],
            "styles": [
              "apps/frontend/src/styles.scss"
            ],
            "scripts": []
          },
          "configurations": {
            "production": {
              "fileReplacements": [
                {
                  "replace": "apps/frontend/src/environments/environment.ts",
                  "with": "apps/frontend/src/environments/environment.prod.ts"
                }
              ],
              "optimization": true,
              "outputHashing": "all",
              "sourceMap": false,
              "namedChunks": false,
              "extractLicenses": true,
              "vendorChunk": false,
              "buildOptimizer": true,
              "budgets": [
                {
                  "type": "initial",
                  "maximumWarning": "2mb",
                  "maximumError": "5mb"
                },
                {
                  "type": "anyComponentStyle",
                  "maximumWarning": "6kb",
                  "maximumError": "10kb"
                }
              ]
            }
          }
        },
        "serve": {
          "executor": "@angular-devkit/build-angular:dev-server",
          "options": {
            "browserTarget": "frontend:build"
          },
          "configurations": {
            "production": {
              "browserTarget": "frontend:build:production"
            }
          }
        },
        "extract-i18n": {
          "executor": "@angular-devkit/build-angular:extract-i18n",
          "options": {
            "browserTarget": "frontend:build"
          }
        },
        "lint": {
          "executor": "@nrwl/linter:eslint",
          "options": {
            "lintFilePatterns": [
              "apps/frontend/src/**/*.ts",
              "apps/frontend/src/**/*.html"
            ]
          }
        },
        "test": {
          "executor": "@nrwl/jest:jest",
          "outputs": [
            "coverage/apps/frontend"
          ],
          "options": {
            "jestConfig": "apps/frontend/jest.config.js",
            "passWithNoTests": true
          }
        },
        "server": {
          "builder": "@angular-devkit/build-angular:server",
          "options": {
            "outputPath": "dist/apps/frontend/server",
            "main": "apps/frontend/server.ts",
            "tsConfig": "apps/frontend/tsconfig.server.json"
          },
          "configurations": {
            "production": {
              "outputHashing": "media",
              "fileReplacements": [
                {
                  "replace": "apps/frontend/src/environments/environment.ts",
                  "with": "apps/frontend/src/environments/environment.prod.ts"
                }
              ],
              "sourceMap": false,
              "optimization": true
            }
          }
        },
        "serve-ssr": {
          "builder": "@nguniversal/builders:ssr-dev-server",
          "options": {
            "browserTarget": "ssr:build",
            "serverTarget": "ssr:server"
          },
          "configurations": {
            "production": {
              "browserTarget": "ssr:build:production",
              "serverTarget": "ssr:server:production"
            }
          }
        },
        "prerender": {
          "builder": "@nguniversal/builders:prerender",
          "options": {
            "browserTarget": "ssr:build:production",
            "serverTarget": "ssr:server:production",
            "routes": [
              "/"
            ]
          },
          "configurations": {
            "production": {}
          }
        }
      }
    },
    "backend": {
      "root": "apps/backend",
      "sourceRoot": "apps/backend/src",
      "projectType": "application",
      "targets": {
        "build": {
          "executor": "@nrwl/node:build",
          "outputs": [
            "{options.outputPath}"
          ],
          "options": {
            "outputPath": "dist/apps/backend",
            "main": "apps/backend/src/main.ts",
            "tsConfig": "apps/backend/tsconfig.app.json",
            "assets": [
              "apps/backend/src/assets"
            ],
            "webpackConfig": "apps/backend/webpack.config.js"
          },
          "configurations": {
            "production": {
              "optimization": true,
              "extractLicenses": true,
              "inspect": false
            }
          }
        },
        "serve": {
          "executor": "@nrwl/node:execute",
          "options": {
            "buildTarget": "backend:build"
          }
        },
        "lint": {
          "executor": "@nrwl/linter:eslint",
          "options": {
            "lintFilePatterns": [
              "apps/backend/**/*.ts"
            ]
          }
        },
        "test": {
          "executor": "@nrwl/jest:jest",
          "outputs": [
            "coverage/apps/backend"
          ],
          "options": {
            "jestConfig": "apps/backend/jest.config.js",
            "passWithNoTests": true
          }
        }
      }
    },
    "frontend-admin": {
      "projectType": "application",
      "root": "apps/frontend-admin",
      "sourceRoot": "apps/frontend-admin/src",
      "prefix": "node",
      "targets": {
        "build": {
          "executor": "@angular-devkit/build-angular:browser",
          "options": {
            "outputPath": "dist/apps/frontend-admin",
            "index": "apps/frontend-admin/src/index.html",
            "main": "apps/frontend-admin/src/main.ts",
            "polyfills": "apps/frontend-admin/src/polyfills.ts",
            "tsConfig": "apps/frontend-admin/tsconfig.app.json",
            "aot": true,
            "assets": [
              "apps/frontend-admin/src/favicon.ico",
              "apps/frontend-admin/src/assets"
            ],
            "styles": [
              "apps/frontend-admin/src/styles.scss"
            ],
            "scripts": []
          },
          "configurations": {
            "production": {
              "fileReplacements": [
                {
                  "replace": "apps/frontend-admin/src/environments/environment.ts",
                  "with": "apps/frontend-admin/src/environments/environment.prod.ts"
                }
              ],
              "optimization": true,
              "outputHashing": "all",
              "sourceMap": false,
              "namedChunks": false,
              "extractLicenses": true,
              "vendorChunk": false,
              "buildOptimizer": true,
              "budgets": [
                {
                  "type": "initial",
                  "maximumWarning": "2mb",
                  "maximumError": "5mb"
                },
                {
                  "type": "anyComponentStyle",
                  "maximumWarning": "6kb",
                  "maximumError": "10kb"
                }
              ]
            }
          }
        },
        "serve": {
          "executor": "@angular-devkit/build-angular:dev-server",
          "options": {
            "browserTarget": "frontend-admin:build"
          },
          "configurations": {
            "production": {
              "browserTarget": "frontend-admin:build:production"
            }
          }
        },
        "extract-i18n": {
          "executor": "@angular-devkit/build-angular:extract-i18n",
          "options": {
            "browserTarget": "frontend-admin:build"
          }
        },
        "lint": {
          "executor": "@nrwl/linter:eslint",
          "options": {
            "lintFilePatterns": [
              "apps/frontend-admin/src/**/*.ts",
              "apps/frontend-admin/src/**/*.html"
            ]
          }
        },
        "test": {
          "executor": "@nrwl/jest:jest",
          "outputs": [
            "coverage/apps/frontend-admin"
          ],
          "options": {
            "jestConfig": "apps/frontend-admin/jest.config.js",
            "passWithNoTests": true
          }
        }
      }
    }
  }
}
